{
  "products": [
    {
      "id": "9200000028828094",
      "ean": "0885370863987",
      "gpc": "EGAME",
      "title": "Halo - The Master Chief Collection - Xbox One",
      "specsTag": "Microsoft",
      "rating": 48,
      "shortDescription": "Inhoud HALO - The Master Chief Collection Halo: Combat Evolved Anniversary Geremasterde Halo 2: Anniversary Halo 3 Halo 4 Nieuwe digitale series: Halo: Nightfall Toegang tot Halo 5: Guardians Beta. De ultieme Halo ervaring! Geoptimiseerd voor Xbox Series X beschikt over Smart Delivery en speelt af in 4K Ultra HD met 60 frames per seconde. Speelt op Xbox Series S, Xbox Series X en Xbox One. Het complete Master Chief-verhaal Het complete verhaal over deze iconische held en zijn epische reis wordt nu uitgebracht als The Master Chief Collection. Halo: Combat Evolved Anniversary, Halo 2: Anniversary, Halo 3, en Halo 4 zijn uitgevoerd met de 60fps beeldkwaliteit van de Xbox One, en bevatten in totaal 45 campagnemissies en meer dan 100 multiplayer (inclusief de originele Halo Combat Evolved-kaarten) en Spartan Ops-kaarten. Samen met de nieuwe proloog- en epiloogscènes als voorbode op Halo 5: Guardians, is dit de collectie voor de Xbox One waarop Halo-fans hebben gewacht. Halo 2: Anniversary De iconische held is na 10 jaar terug. Met een volledig geremasterde campagne met ‘Classic Mode’ waarmee je onmiddellijk kunt switchentussen de geremasterde versie en de originele game uit 2004. Ontdek de nieuwe Halo 5: Guardians-verhaalelementen in verborgen terminal-video’s en gebruik alle nieuwe skulls om de campagne op een hele nieuwe manier te ervaren. Ook alle 23 originele multiplayer-kaarten zitten erbij, naast 6 volledig opnieuw uitgevoerde kaarten. Speel het spel dat een hele nieuwe dimensie gaf aan multiplayer-games opconsoles, en bereid je voor op het volgende Halo-hoofdstuk. Master Menu Navigeer moeiteloos door het verhaal van The Master Chief met het volledig nieuwe Master Menu. Speel alle vier de volledig gedeblokkeerde campagnes van het begin tot het eind of duik middenin de actie. De game-ontwerpers voegden hun eigen playlists van campagnes toe voor nieuwe, spannende uitdagingen. Vind en speel moeiteloos je favoriete multiplayer-games uit meer dan 100 multiplayer en Spartan Ops-kaarten. Dat is alles wat er in Halo, op jouw voorwaarden, vereenvoudigd werd. New Halo: Nightfall Live Action Digital Series Een vreemde, vijandige wereld waarin UNSC-topagenten aan een nog groter gevaar worden blootgesteld in deze live actieserie van 343 Industries en Scott Free Productions. Met Ridley Scott en de directeur van Scott Free TV, David Zucker, als uitvoerend producenten en geregisseerd door Sergio Mimica-Gezzan (“Battlestar Galactica”, “Pillars of the Earth”, “Heroes”), is Halo: Nightfall een spannend nieuw verhaal voor oude én nieuwe Halo-fans. Halo 5: Guardians Multiplayer Beta Wees één van de eersten die de nieuwe generatie Halo-multiplayer speelt in Halo 5: Guardians Beta. Bereid je voor op de Guardians beta door de exclusieve content in The Master Chief Collection en Halo: Nightfall vrij te spelen. Deze exclusieve items neem je mee naar Halo 5: Guardians.",
      "longDescription": "<strong>Inhoud HALO - The Master Chief Collection</strong><br />\n<ul>\n<li>Halo: Combat Evolved Anniversary</li>\n<li>Geremasterde Halo 2: Anniversary</li>\n<li>Halo 3 </li>\n<li>Halo 4</li>\n<li>Nieuwe digitale series: Halo: Nightfall</li>\n<li>Toegang tot Halo 5: Guardians Beta. De ultieme Halo ervaring!</li>\n</ul>\n<strong>Geoptimiseerd voor Xbox Series X</strong><br />beschikt over Smart Delivery en speelt af in 4K Ultra HD met 60 frames per seconde. Speelt op Xbox Series S, Xbox Series X en Xbox One.<br /><br /><strong>Het complete Master Chief-verhaal</strong><br />Het complete verhaal over deze iconische held en zijn epische reis wordt nu uitgebracht als The Master Chief Collection. Halo: Combat Evolved Anniversary, Halo 2: Anniversary, Halo 3, en Halo 4 zijn uitgevoerd met de 60fps beeldkwaliteit van de Xbox One, en bevatten in totaal 45 campagnemissies en meer dan 100 multiplayer (inclusief de originele Halo Combat Evolved-kaarten) en Spartan Ops-kaarten. Samen met de nieuwe proloog- en epiloogscènes als voorbode op Halo 5: Guardians, is dit de collectie voor de Xbox One waarop Halo-fans hebben gewacht.<br /><br /><strong>Halo 2: Anniversary</strong><br />De iconische held is na 10 jaar terug. Met een volledig geremasterde campagne met ‘Classic Mode’ waarmee je onmiddellijk kunt switchentussen de geremasterde versie en de originele game uit 2004. Ontdek de nieuwe Halo 5: Guardians-verhaalelementen in verborgen terminal-video’s en gebruik alle nieuwe skulls om de campagne op een hele nieuwe manier te ervaren. Ook alle 23 originele multiplayer-kaarten zitten erbij, naast 6 volledig opnieuw uitgevoerde kaarten. Speel het spel dat een hele nieuwe dimensie gaf aan multiplayer-games opconsoles, en bereid je voor op het volgende Halo-hoofdstuk.<br /><br /><strong>Master Menu</strong><br />Navigeer moeiteloos door het verhaal van The Master Chief met het volledig nieuwe Master Menu. Speel alle vier de volledig gedeblokkeerde campagnes van het begin tot het eind of duik middenin de actie. De game-ontwerpers voegden hun eigen playlists van campagnes toe voor nieuwe, spannende uitdagingen. Vind en speel moeiteloos je favoriete multiplayer-games uit meer dan 100 multiplayer en Spartan Ops-kaarten. Dat is alles wat er in Halo, op jouw voorwaarden, vereenvoudigd werd.<br /><br /><strong>New Halo: Nightfall Live Action Digital Series</strong><br />Een vreemde, vijandige wereld waarin UNSC-topagenten aan een nog groter gevaar worden blootgesteld in deze live actieserie van 343 Industries en Scott Free Productions. Met Ridley Scott en de directeur van Scott Free TV, David Zucker, als uitvoerend producenten en geregisseerd door Sergio Mimica-Gezzan (“Battlestar Galactica”, “Pillars of the Earth”, “Heroes”), is Halo: Nightfall een spannend nieuw verhaal voor oude én nieuwe Halo-fans.<br /><br /><strong>Halo 5: Guardians Multiplayer Beta</strong><br />Wees één van de eersten die de nieuwe generatie Halo-multiplayer speelt in Halo 5: Guardians Beta. Bereid je voor op de Guardians beta door de exclusieve content in The Master Chief Collection en Halo: Nightfall vrij te spelen. Deze exclusieve items neem je mee naar Halo 5: Guardians.",
      "attributeGroups": [
        {
          "title": "Productinformatie",
          "attributes": [
            {
              "label": "Merk",
              "value": "Microsoft"
            },
            {
              "key": "PLATFORM",
              "label": "Platform",
              "value": "Xbox One"
            },
            {
              "label": "Genre",
              "value": "Actie"
            },
            {
              "label": "Speleditie",
              "value": "Standard edition"
            },
            {
              "key": "CHARACTER",
              "label": "Personage",
              "value": "Halo"
            },
            {
              "label": "Format",
              "value": "Blu-ray"
            }
          ]
        },
        {
          "title": "Doelgroep",
          "attributes": [
            {
              "label": "Doelgroep",
              "value": "Fanatieke gamer"
            },
            {
              "label": "Minimale leeftijd",
              "value": "18"
            },
            {
              "label": "Inhoud leeftijdsindicatie",
              "value": "Geweld | Grof taalgebruik"
            }
          ]
        },
        {
          "title": "Spelopties",
          "attributes": [
            {
              "label": "Online abonnement vereist",
              "value": "Xbox Live Gold"
            },
            {
              "label": "Online optie",
              "value": "Ja"
            },
            {
              "label": "Online multiplayer",
              "value": "Ja"
            },
            {
              "label": "Splitscreen",
              "value": "Ja"
            },
            {
              "key": "NUMBER_OF_PLAYERS",
              "label": "Aantal spelers",
              "value": "2"
            },
            {
              "label": "Aantal spelers offline",
              "value": "1"
            }
          ]
        },
        {
          "title": "Technische gegevens",
          "attributes": [
            {
              "key": "REGION",
              "label": "Regio",
              "value": "Region Free"
            },
            {
              "key": "SYSTEM_REQUIREMENTS",
              "label": "Systeemeisen",
              "value": "Microsoft Xbox One console + controller(s). Werkt niet op een Xbox of Xbox 360!"
            }
          ]
        },
        {
          "title": "Levering",
          "attributes": [
            {
              "label": "Retour- en annuleerbeleid",
              "value": "Klik hiervoor op Retourneren onderaan deze pagina"
            },
            {
              "key": "SGE_PACKAGING",
              "label": "Verpakking",
              "value": "Amaray"
            }
          ]
        },
        {
          "title": "Je vindt dit artikel in",
          "attributes": [
            {
              "key": "CHARACTER",
              "label": "Personage",
              "value": "Halo"
            }
          ]
        },
        {
          "title": "Overige kenmerken",
          "attributes": [
            {
              "key": "4K Game Support",
              "label": "4K-gaming ondersteuning",
              "value": "Nee"
            },
            {
              "key": "Warranty Validity Time",
              "label": "Fabrieksgarantie termijn",
              "value": "3 maanden"
            },
            {
              "key": "Weight",
              "label": "Gewicht",
              "value": "85 g"
            },
            {
              "key": "Award",
              "label": "Gewonnen prijzen",
              "value": "Geen"
            },
            {
              "key": "Subtitles",
              "label": "Ondertitels",
              "value": "Geen ondertiteling"
            },
            {
              "key": "Original Release Date",
              "label": "Oorspronkelijke releasedatum",
              "value": "2014-12-31"
            },
            {
              "key": "Warranty Type",
              "label": "Reparatie type",
              "value": "Carry-in"
            },
            {
              "key": "Game Type",
              "label": "Speltype",
              "value": "First Person"
            },
            {
              "key": "Languages Container",
              "label": "Talen container",
              "value": "nl"
            },
            {
              "key": "Languages Product",
              "label": "Talen product",
              "value": "en"
            },
            {
              "key": "Warranty Exceptions",
              "label": "Uitzonderingen fabrieksgarantie",
              "value": "Niet"
            },
            {
              "key": "Width",
              "label": "Verpakking breedte",
              "value": "134 mm"
            },
            {
              "key": "Height",
              "label": "Verpakking hoogte",
              "value": "15 mm"
            },
            {
              "key": "Length",
              "label": "Verpakking lengte",
              "value": "171 mm"
            },
            {
              "key": "Whats In The Box",
              "label": "Verpakkingsinhoud",
              "value": "Halo The Master Chief Collection"
            },
            {
              "key": "VR Optional",
              "label": "Virtual Reality mogelijkheden",
              "value": "Niet geschikt voor VR"
            }
          ]
        }
      ],
      "entityGroups": [
        {
          "title": "Acteurs"
        },
        {
          "title": "Artiesten"
        },
        {
          "title": "Auteurs"
        },
        {
          "title": "Regisseur"
        },
        {
          "title": "Regisseur"
        },
        {
          "title": "Uitgever",
          "entities": [
            {
              "id": "1551048",
              "value": "Microsoft"
            }
          ]
        }
      ],
      "urls": [
        {
          "key": "DESKTOP",
          "value": "https://www.bol.com/nl/nl/p/halo-the-master-chief-collection-xbox-one/9200000028828094"
        },
        {
          "key": "MOBILE",
          "value": "https://www.bol.com/nl/nl/p/halo-the-master-chief-collection-xbox-one/9200000028828094"
        }
      ],
      "images": [
        {
          "type": "IMAGE",
          "key": "XS",
          "url": "https://media.s-bol.com/K83QQkwjyy1n/47x60.jpg"
        },
        {
          "type": "IMAGE",
          "key": "S",
          "url": "https://media.s-bol.com/K83QQkwjyy1n/97x123.jpg"
        },
        {
          "type": "IMAGE",
          "key": "M",
          "url": "https://media.s-bol.com/K83QQkwjyy1n/122x155.jpg"
        },
        {
          "type": "IMAGE",
          "key": "L",
          "url": "https://media.s-bol.com/K83QQkwjyy1n/166x210.jpg"
        },
        {
          "type": "IMAGE",
          "key": "XL",
          "url": "https://media.s-bol.com/K83QQkwjyy1n/550x695.jpg"
        },
        {
          "type": "IMAGE",
          "key": "XXL",
          "url": "https://media.s-bol.com/K83QQkwjyy1n/949x1200.jpg"
        }
      ],
      "media": [
        {
          "type": "IMAGE",
          "key": "XL",
          "url": "https://media.s-bol.com/BxGk3GYvVjY/550x237.jpg"
        },
        {
          "type": "IMAGE",
          "key": "XL",
          "url": "https://media.s-bol.com/K83QQkwjyy1n/550x695.jpg"
        },
        {
          "type": "IMAGE",
          "key": "XL",
          "url": "https://media.s-bol.com/N9Xl9L5kZl68/550x385.jpg"
        },
        {
          "type": "IMAGE",
          "key": "XL",
          "url": "https://media.s-bol.com/OyLmyM5Y1m0E/550x309.jpg"
        },
        {
          "type": "IMAGE",
          "key": "XL",
          "url": "https://media.s-bol.com/RRy5jPq83DL/550x309.jpg"
        },
        {
          "type": "IMAGE",
          "key": "XL",
          "url": "https://media.s-bol.com/grWlm88JLG3/550x309.jpg"
        },
        {
          "type": "IMAGE",
          "key": "XL",
          "url": "https://media.s-bol.com/myD813VJPWyR/550x706.jpg"
        },
        {
          "type": "IMAGE",
          "key": "XL",
          "url": "https://media.s-bol.com/qGWyzGvE6lG/550x309.jpg"
        },
        {
          "type": "IMAGE",
          "key": "XL",
          "url": "https://media.s-bol.com/xPWJJD4Lp4J/550x309.jpg"
        },
        {
          "type": "IMAGE",
          "key": "XL",
          "url": "https://media.s-bol.com/xkqq9kQqrq7E/550x209.jpg"
        }
      ],
      "offerData": {
        "bolCom": 0,
        "nonProfessionalSellers": 1,
        "professionalSellers": 0,
        "offers": [
          {
            "id": "1001035209686703",
            "condition": "Als nieuw",
            "price": 33.49,
            "availabilityCode": "-1",
            "availabilityDescription": "Uiterlijk 8 december in huis",
            "comment": "2 Maanden garantie! Tweedehands met de service van nieuw. Al onze games worden gecontroleerd op krassen. Wij versturen 100% werkende games en bieden 2 maanden garantie. Standaard geleverd in het originele doosje met bijbehorende boekjes. In enkele gevallen komt het voor dat de game geen boekje bevat.",
            "seller": {
              "id": "1226406",
              "sellerType": "Kleinzakelijke verkoper",
              "displayName": "GooHoo Gameshops B.V.",
              "topSeller": false,
              "logo": "https://s-test2.s-bol.com/nl/cms/images/sellerlogos/sellerlogo_1226406.png",
              "sellerRating": {
                "ratingMethod": "THREE_MONTHS",
                "sellerRating": "8.0",
                "productInformationRating": "8.8",
                "deliveryTimeRating": "7.8",
                "shippingRating": "8.4",
                "serviceRating": "8.5"
              },
              "recentReviewCounts": {
                "positiveReviewCount": 15,
                "neutralReviewCount": 0,
                "negativeReviewCount": 3,
                "totalReviewCount": 18
              },
              "sellerInformation": "Bij GooHoo geven we producten een tweede en duurzame toekomst. Wij kopen, testen en verkopen via professionele en gespecialiseerde webwinkels een breed scala aan gebruikte artikelen. Hierdoor kunnen onze klanten genieten van goedkope en exclusieve producten met de service en garantie zoals ze die gewend zijn bij het online winkelen. Wij dragen zorg voor een snelle levering en uitgebreide garantie, ook op gebruikte producten! Zo leveren wij dus de garantie waar je op rekent, de service die je verwacht én verassen we je met onze prijzen en milieubewuste aanpak.",
              "useWarrantyRepairConditions": false,
              "approvalPercentage": "83.3",
              "registrationDate": "2016-09-28T02:00:00.000+02:00"
            },
            "bestOffer": true
          }
        ]
      },
      "parentCategoryPaths": [
        {
          "parentCategories": [
            {
              "id": "3135",
              "name": "Games"
            },
            {
              "id": "18200",
              "name": "Videogames"
            }
          ]
        },
        {
          "parentCategories": [
            {
              "id": "3135",
              "name": "Games"
            }
          ]
        },
        {
          "parentCategories": [
            {
              "id": "3135",
              "name": "Games"
            },
            {
              "id": "18200",
              "name": "Videogames"
            },
            {
              "id": "38905",
              "name": "Xbox One-games"
            }
          ]
        }
      ]
    }
  ]
}